{
    "id" :
    [{
        "name" : "othello version1",
        "structure" : {
            "act" : [
                {
                "name" : "Act 1",
                "scene" : [
                    { "name" : "Scene 1", "textLength" : 100 },
                    { "name" : "Scene 2", "textLength" : 200 },
                    { "name" : "Scene 3", "textLength" : 400 }]
                },
                {   
                "name" : "Act 2",
                "scene" : [
                    { "name" : "Scene 1", "textLength" : 300 },
                    { "name" : "Scene 2", "textLength" : 600 },
                    { "name" : "Scene 3", "textLength" : 200 }]
                },
                {   
                "name" : "Act 3",
                "scene" : [
                    { "name" : "Scene 1", "textLength" : 300 },
                    { "name" : "Scene 2", "textLength" : 600 },
                    { "name" : "Scene 3", "textLength" : 200 },
                    { "name" : "Scene 4", "textLength" : 500 }]
                },
                {   
                "name" : "Act 4",
                "scene" : [
                    { "name" : "Scene 1", "textLength" : 100 },
                    { "name" : "Scene 2", "textLength" : 300 },
                    { "name" : "Scene 3", "textLength" : 200 }]
                },
                {   
                "name" : "Act 5",
                "scene" : [
                    { "name" : "Scene 1", "textLength" : 300 },
                    { "name" : "Scene 2", "textLength" : 200 }]
                }
            ]
        }
    },
    {
        "name" : "othello version2",
        "structure" : {
            "act" : [
                {
                "name" : "Act 1",
                "scene" : [
                    { "name" : "Scene 1", "textLength" : 100 },
                    { "name" : "Scene 2", "textLength" : 300 },
                    { "name" : "Scene 3", "textLength" : 300 }]
                },
                {   
                "name" : "Act 2",
                "scene" : [
                    { "name" : "Scene 1", "textLength" : 200 },
                    { "name" : "Scene 2", "textLength" : 800 },
                    { "name" : "Scene 3", "textLength" : 100 }]
                },
                {   
                "name" : "Act 3",
                "scene" : [
                    { "name" : "Scene 1", "textLength" : 300 },
                    { "name" : "Scene 2", "textLength" : 400 },
                    { "name" : "Scene 3", "textLength" : 500 },
                    { "name" : "Scene 4", "textLength" : 100 }]
                },
                {   
                "name" : "Act 4",
                "scene" : [
                    { "name" : "Scene 1", "textLength" : 200 },
                    { "name" : "Scene 2", "textLength" : 300 },
                    { "name" : "Scene 3", "textLength" : 100 }]
                },
                {   
                "name" : "Act 5",
                "scene" : [
                    { "name" : "Scene 1", "textLength" : 400 },
                    { "name" : "Scene 2", "textLength" : 200 }]
                }
            ]
        }
    }]
}